Exercicio4/simulation/qsim/Exercicio4.msim.vcd
$comment
	File created using the following command:
		vcd file Exercicio4.msim.vcd -direction
$end
$date
	Wed Oct 02 17:23:11 2024
$end
$version
	ModelSim Version 2020.1
$end
$timescale
	1ps
$end

$scope module atrasador_6ciclos_vlg_vec_tst $end
$var reg 1 ! clk $end
$var reg 16 " in [15:0] $end
$var wire 1 # out [15] $end
$var wire 1 $ out [14] $end
$var wire 1 % out [13] $end
$var wire 1 & out [12] $end
$var wire 1 ' out [11] $end
$var wire 1 ( out [10] $end
$var wire 1 ) out [9] $end
$var wire 1 * out [8] $end
$var wire 1 + out [7] $end
$var wire 1 , out [6] $end
$var wire 1 - out [5] $end
$var wire 1 . out [4] $end
$var wire 1 / out [3] $end
$var wire 1 0 out [2] $end
$var wire 1 1 out [1] $end
$var wire 1 2 out [0] $end

$scope module i1 $end
$var wire 1 3 gnd $end
$var wire 1 4 vcc $end
$var wire 1 5 unknown $end
$var tri1 1 6 devclrn $end
$var tri1 1 7 devpor $end
$var tri1 1 8 devoe $end
$var wire 1 9 out[0]~output_o $end
$var wire 1 : out[1]~output_o $end
$var wire 1 ; out[2]~output_o $end
$var wire 1 < out[3]~output_o $end
$var wire 1 = out[4]~output_o $end
$var wire 1 > out[5]~output_o $end
$var wire 1 ? out[6]~output_o $end
$var wire 1 @ out[7]~output_o $end
$var wire 1 A out[8]~output_o $end
$var wire 1 B out[9]~output_o $end
$var wire 1 C out[10]~output_o $end
$var wire 1 D out[11]~output_o $end
$var wire 1 E out[12]~output_o $end
$var wire 1 F out[13]~output_o $end
$var wire 1 G out[14]~output_o $end
$var wire 1 H out[15]~output_o $end
$var wire 1 I clk~input_o $end
$var wire 1 J in[0]~input_o $end
$var wire 1 K out[0]~reg0_q $end
$var wire 1 L in[1]~input_o $end
$var wire 1 M out[1]~reg0_q $end
$var wire 1 N in[2]~input_o $end
$var wire 1 O out[2]~reg0_q $end
$var wire 1 P in[3]~input_o $end
$var wire 1 Q out[3]~reg0_q $end
$var wire 1 R in[4]~input_o $end
$var wire 1 S out[4]~reg0_q $end
$var wire 1 T in[5]~input_o $end
$var wire 1 U out[5]~reg0_q $end
$var wire 1 V in[6]~input_o $end
$var wire 1 W out[6]~reg0_q $end
$var wire 1 X in[7]~input_o $end
$var wire 1 Y out[7]~reg0_q $end
$var wire 1 Z in[8]~input_o $end
$var wire 1 [ out[8]~reg0_q $end
$var wire 1 \ in[9]~input_o $end
$var wire 1 ] out[9]~reg0_q $end
$var wire 1 ^ in[10]~input_o $end
$var wire 1 _ out[10]~reg0_q $end
$var wire 1 ` in[11]~input_o $end
$var wire 1 a out[11]~reg0_q $end
$var wire 1 b in[12]~input_o $end
$var wire 1 c out[12]~reg0_q $end
$var wire 1 d in[13]~input_o $end
$var wire 1 e out[13]~reg0_q $end
$var wire 1 f in[14]~input_o $end
$var wire 1 g out[14]~reg0_q $end
$var wire 1 h in[15]~input_o $end
$var wire 1 i out[15]~reg0_q $end
$var wire 1 j a6 [15] $end
$var wire 1 k a6 [14] $end
$var wire 1 l a6 [13] $end
$var wire 1 m a6 [12] $end
$var wire 1 n a6 [11] $end
$var wire 1 o a6 [10] $end
$var wire 1 p a6 [9] $end
$var wire 1 q a6 [8] $end
$var wire 1 r a6 [7] $end
$var wire 1 s a6 [6] $end
$var wire 1 t a6 [5] $end
$var wire 1 u a6 [4] $end
$var wire 1 v a6 [3] $end
$var wire 1 w a6 [2] $end
$var wire 1 x a6 [1] $end
$var wire 1 y a6 [0] $end
$var wire 1 z a5 [15] $end
$var wire 1 { a5 [14] $end
$var wire 1 | a5 [13] $end
$var wire 1 } a5 [12] $end
$var wire 1 ~ a5 [11] $end
$var wire 1 !! a5 [10] $end
$var wire 1 "! a5 [9] $end
$var wire 1 #! a5 [8] $end
$var wire 1 $! a5 [7] $end
$var wire 1 %! a5 [6] $end
$var wire 1 &! a5 [5] $end
$var wire 1 '! a5 [4] $end
$var wire 1 (! a5 [3] $end
$var wire 1 )! a5 [2] $end
$var wire 1 *! a5 [1] $end
$var wire 1 +! a5 [0] $end
$var wire 1 ,! a4 [15] $end
$var wire 1 -! a4 [14] $end
$var wire 1 .! a4 [13] $end
$var wire 1 /! a4 [12] $end
$var wire 1 0! a4 [11] $end
$var wire 1 1! a4 [10] $end
$var wire 1 2! a4 [9] $end
$var wire 1 3! a4 [8] $end
$var wire 1 4! a4 [7] $end
$var wire 1 5! a4 [6] $end
$var wire 1 6! a4 [5] $end
$var wire 1 7! a4 [4] $end
$var wire 1 8! a4 [3] $end
$var wire 1 9! a4 [2] $end
$var wire 1 :! a4 [1] $end
$var wire 1 ;! a4 [0] $end
$var wire 1 <! a3 [15] $end
$var wire 1 =! a3 [14] $end
$var wire 1 >! a3 [13] $end
$var wire 1 ?! a3 [12] $end
$var wire 1 @! a3 [11] $end
$var wire 1 A! a3 [10] $end
$var wire 1 B! a3 [9] $end
$var wire 1 C! a3 [8] $end
$var wire 1 D! a3 [7] $end
$var wire 1 E! a3 [6] $end
$var wire 1 F! a3 [5] $end
$var wire 1 G! a3 [4] $end
$var wire 1 H! a3 [3] $end
$var wire 1 I! a3 [2] $end
$var wire 1 J! a3 [1] $end
$var wire 1 K! a3 [0] $end
$var wire 1 L! a2 [15] $end
$var wire 1 M! a2 [14] $end
$var wire 1 N! a2 [13] $end
$var wire 1 O! a2 [12] $end
$var wire 1 P! a2 [11] $end
$var wire 1 Q! a2 [10] $end
$var wire 1 R! a2 [9] $end
$var wire 1 S! a2 [8] $end
$var wire 1 T! a2 [7] $end
$var wire 1 U! a2 [6] $end
$var wire 1 V! a2 [5] $end
$var wire 1 W! a2 [4] $end
$var wire 1 X! a2 [3] $end
$var wire 1 Y! a2 [2] $end
$var wire 1 Z! a2 [1] $end
$var wire 1 [! a2 [0] $end
$var wire 1 \! a1 [15] $end
$var wire 1 ]! a1 [14] $end
$var wire 1 ^! a1 [13] $end
$var wire 1 _! a1 [12] $end
$var wire 1 `! a1 [11] $end
$var wire 1 a! a1 [10] $end
$var wire 1 b! a1 [9] $end
$var wire 1 c! a1 [8] $end
$var wire 1 d! a1 [7] $end
$var wire 1 e! a1 [6] $end
$var wire 1 f! a1 [5] $end
$var wire 1 g! a1 [4] $end
$var wire 1 h! a1 [3] $end
$var wire 1 i! a1 [2] $end
$var wire 1 j! a1 [1] $end
$var wire 1 k! a1 [0] $end
$upscope $end
$upscope $end
$enddefinitions $end
#0
$dumpvars
0!
b1001101111011011 "
02
01
00
0/
0.
0-
0,
0+
0*
0)
0(
0'
0&
0%
0$
0#
03
14
x5
16
17
18
09
0:
0;
0<
0=
0>
0?
0@
0A
0B
0C
0D
0E
0F
0G
0H
0I
1J
0K
1L
0M
0N
0O
1P
0Q
1R
0S
0T
0U
1V
0W
1X
0Y
1Z
0[
1\
0]
0^
0_
1`
0a
1b
0c
0d
0e
0f
0g
1h
0i
0y
0x
0w
0v
0u
0t
0s
0r
0q
0p
0o
0n
0m
0l
0k
0j
0+!
0*!
0)!
0(!
0'!
0&!
0%!
0$!
0#!
0"!
0!!
0~
0}
0|
0{
0z
0;!
0:!
09!
08!
07!
06!
05!
04!
03!
02!
01!
00!
0/!
0.!
0-!
0,!
0K!
0J!
0I!
0H!
0G!
0F!
0E!
0D!
0C!
0B!
0A!
0@!
0?!
0>!
0=!
0<!
0[!
0Z!
0Y!
0X!
0W!
0V!
0U!
0T!
0S!
0R!
0Q!
0P!
0O!
0N!
0M!
0L!
0k!
0j!
0i!
0h!
0g!
0f!
0e!
0d!
0c!
0b!
0a!
0`!
0_!
0^!
0]!
0\!
$end
#25000
1!
1I
1\!
1_!
1`!
1b!
1c!
1d!
1e!
1g!
1h!
1j!
1k!
#50000
b1011101111011011 "
b1010101111011011 "
b1010101110011011 "
b1010101110111011 "
b1010101110101011 "
b1010101110100011 "
0!
0P
0R
1T
0V
0b
1d
0I
#75000
1!
1I
1L!
1^!
1O!
0_!
1P!
1R!
1S!
1T!
1U!
0e!
1f!
1W!
0g!
1X!
0h!
1Z!
1[!
#100000
b1110101110100011 "
b1110111110100011 "
b1110111110100111 "
b1110111110100101 "
b1111111110100101 "
b1111111111100101 "
b1111111111101101 "
0!
0L
1N
1P
1V
1^
1b
1f
0I
#125000
1!
1I
1<!
1]!
1N!
1?!
0O!
1_!
1@!
1a!
1B!
1C!
1D!
1E!
0U!
1e!
1V!
1G!
0W!
1H!
0X!
1h!
1i!
1J!
0j!
1K!
#150000
b1111110111101101 "
b1111110011101101 "
b1111110001101101 "
b1111110001101100 "
b1101110001101100 "
b1101110001001100 "
b1001110001001100 "
b1001100001001100 "
b1001100001001000 "
b1001100001001010 "
b1000100001001010 "
b1000100000001010 "
b1000100000000010 "
0!
0J
1L
0N
0P
0T
0V
0X
0Z
0\
0^
0b
0d
0f
0I
#175000
1!
1I
1,!
1M!
0]!
1>!
0^!
1/!
0?!
1O!
0_!
10!
1Q!
0a!
12!
0b!
13!
0c!
14!
0d!
15!
0E!
1U!
0e!
1F!
0f!
17!
0G!
18!
0H!
1X!
0h!
1Y!
0i!
1:!
0Z!
1j!
1;!
0k!
#200000
b1000100000010010 "
b1000101000010010 "
b1000101100010010 "
b1000101110010010 "
b1000101110010011 "
b1010101110010011 "
b1110101110010011 "
b1110111110010011 "
b1111111110010011 "
b1111111110011011 "
0!
1J
1P
1R
1X
1Z
1\
1^
1b
1d
1f
0I
#225000
1!
1I
1z
1=!
0M!
1]!
1.!
0N!
1^!
1}
0/!
1?!
0O!
1_!
1~
1A!
0Q!
1a!
1"!
0R!
1b!
1#!
0S!
1c!
1$!
0T!
1d!
1%!
05!
1E!
0U!
16!
0V!
1'!
07!
1g!
1(!
08!
1H!
0X!
1h!
1I!
0Y!
1*!
0J!
1Z!
1+!
0[!
1k!
#250000
b1111111110011111 "
b1111110110011111 "
b1101110110011111 "
b1001110110011111 "
b1000110110011111 "
b1000110110010111 "
0!
1N
0P
0\
0b
0d
0f
0I
#275000
1!
1I
1j
1-!
0=!
1M!
0]!
1|
0>!
1N!
0^!
1m
0}
1/!
0?!
1O!
0_!
1n
11!
0A!
1Q!
1p
0B!
1R!
0b!
1q
0C!
1S!
1r
0D!
1T!
1s
0%!
15!
0E!
1&!
0F!
1u
0'!
1W!
1v
0(!
18!
0H!
1X!
0h!
19!
0I!
1i!
1x
0:!
1J!
1y
0K!
1[!
#300000
b110110010111 "
b10110010111 "
b10110110111 "
b10110110101 "
b10110100101 "
b10010100101 "
b10010100100 "
b10100100 "
b100000010100100 "
b100000010101100 "
0!
0J
0L
1P
0R
1T
0Z
0^
0`
1f
0h
0I
#325000
1!
1I
1i
0\!
1{
0-!
1=!
0M!
1]!
1l
0.!
1>!
0N!
1c
0m
1}
0/!
1?!
0O!
1a
0`!
1!!
01!
1A!
0a!
1]
02!
1B!
0R!
1[
03!
1C!
0c!
1Y
04!
1D!
1W
0s
1%!
05!
1t
06!
1f!
1S
0u
1G!
0g!
1Q
0v
1(!
08!
1H!
0X!
1h!
1)!
09!
1Y!
1M
0*!
1:!
0j!
1K
0;!
1K!
0k!
19
1:
1<
1=
1?
1@
1A
1B
1D
1E
1H
1#
1&
1'
1)
1*
1+
1,
1.
1/
11
12
#350000
b100000011101100 "
b100001011101100 "
b110001011101100 "
b1110001011101100 "
b1110101011101100 "
b1110101011111100 "
b1110101111111100 "
b1110101111111101 "
b1110111111111101 "
b1010111111111101 "
0!
1J
1R
1V
1Z
1\
1^
1`
1d
0f
1h
0I
#375000
1!
1I
0L!
1\!
1k
0{
1-!
0=!
1M!
0]!
1e
0|
1.!
0>!
1^!
0c
1m
0}
1/!
0?!
0P!
1`!
1o
0!!
11!
0Q!
1a!
0"!
12!
0B!
1b!
0#!
13!
0S!
1c!
0$!
14!
0W
1s
0%!
1e!
1U
0&!
1V!
0S
17!
0W!
1g!
0Q
1v
0(!
18!
0H!
1X!
1w
0)!
1I!
0x
1*!
0Z!
0+!
1;!
0[!
1k!
0<
0=
1>
0?
0E
1F
1%
0&
0,
1-
0.
0/
#400000
b1010111111111001 "
b1010111111111011 "
b1010111111101011 "
b1010111111101010 "
b1010101111101010 "
0!
0J
1L
0N
0R
0^
0I
#425000
1!
1I
0<!
1L!
1g
0k
1{
0-!
1=!
0M!
0l
1|
0.!
1N!
1c
0m
1}
0/!
0@!
1P!
1_
0o
1!!
0A!
1Q!
0a!
0p
1"!
02!
1R!
0q
1#!
0C!
1S!
0r
1$!
1W
0s
1U!
0t
1F!
1'!
0G!
1W!
0g!
1Q
0v
1(!
08!
1H!
1O
0w
19!
0i!
0M
1x
0J!
1j!
0y
1+!
0K!
1[!
0k!
0:
1;
1<
1?
1C
1E
1G
1$
1&
1(
1,
1/
10
01
#450000
b1010101111001010 "
b1010101110001010 "
b1010100110001010 "
b1000100110001010 "
b100110001010 "
b100010001010 "
b100010001011 "
0!
1J
0T
0V
0Z
0\
0d
0h
0I
#475000
1!
1I
0,!
1<!
0\!
0g
1k
0{
1-!
0=!
0e
1l
0|
1>!
0^!
0c
1m
0}
00!
1@!
0_
1o
01!
1A!
0Q!
0]
1p
0"!
1B!
0b!
0[
1q
03!
1C!
0c!
0Y
1r
0W
1E!
0e!
0U
16!
0f!
1u
07!
1G!
0W!
0Q
1v
0(!
18!
0O
1)!
0Y!
1M
0:!
1Z!
0K
1y
0;!
1K!
0[!
1k!
09
1:
0;
0<
0>
0?
0@
0A
0B
0C
0E
0F
0G
0$
0%
0&
0(
0)
0*
0+
0,
0-
0/
00
11
02
#500000
b1100010001011 "
b1100010000011 "
b101100010000011 "
b101110010000011 "
b101111010000011 "
b111111010000011 "
0!
0P
1\
1^
1b
1d
1f
0I
#525000
1!
1I
0z
1,!
0L!
1g
0k
1{
0-!
1]!
1e
0l
1.!
0N!
1^!
1c
0m
1_!
0~
10!
1_
0!!
11!
0A!
1a!
1]
0p
12!
0R!
1b!
1[
0#!
13!
0S!
1Y
15!
0U!
1&!
0V!
1S
0'!
17!
0G!
1Q
0v
1(!
0h!
1w
0I!
0*!
1J!
1K
0+!
1;!
0K!
1[!
19
1<
1=
1@
1A
1B
1C
1E
1F
1G
1$
1%
1&
1(
1)
1*
1+
1.
1/
12
#550000
b111011010000011 "
b111011010000111 "
b111011010010111 "
b111011010110111 "
b1111011010110111 "
b1111011010110110 "
b1110011010110110 "
b1110011010111110 "
b1010011010111110 "
b1010001010111110 "
b1010000010111110 "
b1000000010111110 "
0!
0J
1N
1P
1R
1T
0\
0^
0`
0b
0d
0f
1h
0I
#575000
1!
1I
0j
1z
0<!
1\!
0g
1k
0{
1M!
0]!
0e
1|
0>!
1N!
0^!
0c
1O!
0_!
0n
1~
0`!
0o
1!!
01!
1Q!
0a!
0]
1"!
0B!
1R!
0b!
0q
1#!
0C!
1%!
0E!
1t
0F!
1f!
0u
1'!
07!
1g!
0Q
1v
0X!
1h!
1O
09!
1i!
0x
1:!
0y
1+!
0;!
1K!
0k!
1;
0<
0B
0E
0F
0G
0$
0%
0&
0)
0/
10
#600000
b1000000000111110 "
b1000000001111110 "
b1000100001111110 "
b1000100001101110 "
b1000100001001110 "
b100001001110 "
b100001001111 "
b100001000111 "
b110001000111 "
b111001000111 "
b10111001000111 "
0!
1J
0P
0R
0T
1V
0X
1\
1^
1`
1d
0h
0I
#625000
1!
1I
0i
1j
0,!
1L!
0\!
1g
0k
1=!
0M!
1l
0.!
1>!
0N!
1^!
1?!
0O!
0a
1n
0P!
1`!
0_
1o
0!!
1A!
0Q!
1a!
1p
02!
1B!
0R!
1b!
0[
1q
03!
0d!
1s
05!
1e!
1U
06!
1V!
0f!
0S
1u
0'!
1W!
0g!
1Q
0H!
1X!
0h!
0)!
1Y!
0M
1*!
0K
1y
0+!
1;!
0[!
1k!
09
0:
1<
0=
1>
0A
0C
0D
1G
0H
0#
1$
0'
0(
0*
1-
0.
1/
01
02
#650000
b10111001000101 "
b10111101000101 "
b10111111000101 "
b10111110000101 "
b10111110010101 "
b10111110110101 "
b10111110111101 "
b10101110111101 "
b101110111101 "
0!
0L
1P
1R
1T
0V
1X
1Z
0^
0d
0I
#675000
1!
1I
1i
0z
1<!
0L!
0g
1-!
0=!
1e
0|
1.!
0>!
1N!
0^!
1/!
0?!
1a
0@!
1P!
1_
0o
11!
0A!
1Q!
0a!
1]
0"!
12!
0B!
1R!
1[
0#!
1c!
0T!
1d!
1W
0%!
1U!
0e!
0&!
1F!
0V!
1f!
1S
0u
1G!
0W!
1g!
08!
1H!
0X!
1h!
0w
1I!
1x
0j!
1K
0y
1+!
0K!
1[!
19
1=
1?
1A
1B
1C
1D
1F
0G
1H
1#
0$
1%
1'
1(
1)
1*
1,
1.
12
#700000
b101110111001 "
b1101110111001 "
b1001110111001 "
b1001001110111001 "
b1001001010111001 "
b1011001010111001 "
0!
0N
0Z
0`
1b
1d
1h
0I
#725000
1!
1I
0j
1,!
0<!
1\!
1{
0-!
0l
1|
0.!
1>!
0N!
1^!
1}
0/!
1_!
00!
1@!
0`!
0_
1!!
01!
1A!
0Q!
0p
1"!
02!
1B!
0q
1S!
0c!
0D!
1T!
0s
1E!
0U!
0t
16!
0F!
1V!
0S
17!
0G!
1W!
0(!
18!
0H!
1X!
0O
19!
0i!
1M
0Z!
0K
1y
0;!
1K!
09
1:
0;
0=
0C
0(
0.
00
11
02
#750000
b1011001010111000 "
b1011000010111000 "
b1011000000111000 "
b1011000001111000 "
b1011000001101000 "
b1011000001100000 "
b1011000001100100 "
b1001000001100100 "
0!
0J
1N
0P
0R
1V
0X
0\
0d
0I
#775000
1!
1I
0i
1z
0,!
1L!
1k
0{
0e
1l
0|
1.!
0>!
1N!
0^!
1m
0}
1O!
0~
10!
0P!
1o
0!!
11!
0A!
0]
1p
0"!
12!
0b!
0[
1C!
0S!
04!
1D!
0d!
0W
15!
0E!
1e!
0U
1&!
06!
1F!
1'!
07!
1G!
0g!
0v
1(!
08!
1H!
0h!
1)!
0Y!
1i!
0J!
1K
0+!
1;!
0k!
19
0>
0?
0A
0B
0F
0H
0#
0%
0)
0*
0,
0-
12
#800000
b1001010001100100 "
b1001010101100100 "
b1011010101100100 "
0!
1Z
1^
1d
0I
#825000
1!
1I
1j
0z
1<!
1g
0k
1e
0l
1|
0.!
1>!
0N!
1^!
1c
0m
1?!
0n
1~
0@!
1_
0o
1!!
01!
1a!
1]
0p
1"!
0R!
13!
0C!
1c!
0$!
14!
0T!
1%!
05!
1U!
1t
0&!
16!
1u
0'!
17!
0W!
0Q
1v
0(!
18!
0X!
1w
0I!
1Y!
0:!
0y
1+!
0[!
0<
1B
1C
1E
1F
1G
1$
1%
1&
1(
1)
0/
#850000
b1111010101100100 "
b1111010101100110 "
b1111010101000110 "
b111010101000110 "
b111011101000110 "
b111011111000110 "
b111011110000110 "
b111011110010110 "
0!
1L
1R
0T
0V
1X
1\
1f
0h
0I
#875000
1!
1I
1i
0j
1,!
0\!
0g
1]!
0e
1l
0|
1.!
0>!
1N!
0c
1/!
0a
1n
00!
0_
1o
0!!
1Q!
0]
1p
0B!
1b!
1#!
03!
1S!
0r
1$!
0D!
1d!
1s
0%!
1E!
0e!
1U
0t
1&!
0f!
1S
0u
1'!
0G!
1g!
1Q
0v
1(!
0H!
1O
09!
1I!
0*!
1j!
0K
1y
0K!
09
1;
1<
1=
1>
0B
0C
0D
0E
0F
0G
1H
1#
0$
0%
0&
0'
0(
0)
1-
1.
1/
10
02
#900000
b111111110010110 "
b111111110011110 "
b111111010011110 "
b101111010011110 "
b1111010011110 "
b1001111010011110 "
0!
1P
0Z
1`
0d
0f
1h
0I
#925000
1!
1I
0i
1z
0L!
1\!
1M!
0]!
1e
0l
1|
0.!
1>!
0^!
1}
1a
0~
1`!
1_
0o
1A!
1]
02!
1R!
1q
0#!
1C!
0c!
0Y
1r
04!
1T!
1W
0s
15!
0U!
0U
1t
0V!
0S
1u
07!
1W!
0Q
1v
08!
1h!
0)!
19!
0x
1Z!
1K
0;!
19
0<
0=
0>
1?
0@
1B
1C
1D
1F
0H
0#
1%
1'
1(
1)
0+
1,
0-
0.
0/
12
#950000
b1000111010011110 "
b1000111010011111 "
b1000101010011111 "
b1000101010011101 "
b1000101011011101 "
b101011011101 "
0!
1J
0L
1V
0^
0b
0h
0I
#975000
1!
1I
1j
0<!
1L!
0\!
1=!
0M!
0e
1l
0|
1.!
0N!
1m
0_!
0n
1P!
0_
11!
0a!
0"!
1B!
1[
0q
13!
0S!
1Y
0$!
1D!
0W
1%!
0E!
1e!
1U
0F!
1S
0'!
1G!
1Q
0(!
1X!
0w
1)!
0M
1J!
0j!
0+!
1k!
0:
1<
1=
1>
0?
1@
1A
0C
0F
0%
0(
1*
1+
0,
1-
1.
1/
01
