Exercicio2/simulation/qsim/Exercicio2.msim.vcd
$comment
	File created using the following command:
		vcd file Exercicio2.msim.vcd -direction
$end
$date
	Fri Sep 27 12:12:32 2024
$end
$version
	ModelSim Version 2020.1
$end
$timescale
	1ps
$end

$scope module top_Cont64_vlg_vec_tst $end
$var reg 1 ! clk $end
$var reg 1 " clr_n $end
$var reg 1 # clr_n1 $end
$var wire 1 $ out [5] $end
$var wire 1 % out [4] $end
$var wire 1 & out [3] $end
$var wire 1 ' out [2] $end
$var wire 1 ( out [1] $end
$var wire 1 ) out [0] $end
$var wire 1 * out1 [5] $end
$var wire 1 + out1 [4] $end
$var wire 1 , out1 [3] $end
$var wire 1 - out1 [2] $end
$var wire 1 . out1 [1] $end
$var wire 1 / out1 [0] $end
$var wire 1 0 soma [6] $end
$var wire 1 1 soma [5] $end
$var wire 1 2 soma [4] $end
$var wire 1 3 soma [3] $end
$var wire 1 4 soma [2] $end
$var wire 1 5 soma [1] $end
$var wire 1 6 soma [0] $end

$scope module i1 $end
$var wire 1 7 gnd $end
$var wire 1 8 vcc $end
$var wire 1 9 unknown $end
$var tri1 1 : devclrn $end
$var tri1 1 ; devpor $end
$var tri1 1 < devoe $end
$var wire 1 = out[0]~output_o $end
$var wire 1 > out[1]~output_o $end
$var wire 1 ? out[2]~output_o $end
$var wire 1 @ out[3]~output_o $end
$var wire 1 A out[4]~output_o $end
$var wire 1 B out[5]~output_o $end
$var wire 1 C out1[0]~output_o $end
$var wire 1 D out1[1]~output_o $end
$var wire 1 E out1[2]~output_o $end
$var wire 1 F out1[3]~output_o $end
$var wire 1 G out1[4]~output_o $end
$var wire 1 H out1[5]~output_o $end
$var wire 1 I soma[0]~output_o $end
$var wire 1 J soma[1]~output_o $end
$var wire 1 K soma[2]~output_o $end
$var wire 1 L soma[3]~output_o $end
$var wire 1 M soma[4]~output_o $end
$var wire 1 N soma[5]~output_o $end
$var wire 1 O soma[6]~output_o $end
$var wire 1 P clk~input_o $end
$var wire 1 Q clr_n~input_o $end
$var wire 1 R inst_contador|cont[0]~0_combout $end
$var wire 1 S inst_contador|a~0_combout $end
$var wire 1 T inst_contador|cont[1]~1_combout $end
$var wire 1 U inst_contador|a~1_combout $end
$var wire 1 V inst_contador|cont[2]~2_combout $end
$var wire 1 W inst_contador|a~2_combout $end
$var wire 1 X inst_contador|cont[3]~3_combout $end
$var wire 1 Y inst_contador|a~3_combout $end
$var wire 1 Z inst_contador|cont[4]~4_combout $end
$var wire 1 [ inst_contador|a~4_combout $end
$var wire 1 \ inst_contador|cont[5]~5_combout $end
$var wire 1 ] inst_contador|a~5_combout $end
$var wire 1 ^ clr_n1~input_o $end
$var wire 1 _ inst_contador1|cont[0]~0_combout $end
$var wire 1 ` inst_contador1|a~0_combout $end
$var wire 1 a inst_contador1|cont[1]~1_combout $end
$var wire 1 b inst_contador1|a~1_combout $end
$var wire 1 c inst_contador1|cont[2]~2_combout $end
$var wire 1 d inst_contador1|a~2_combout $end
$var wire 1 e inst_contador1|cont[3]~3_combout $end
$var wire 1 f inst_contador1|a~3_combout $end
$var wire 1 g inst_contador1|cont[4]~4_combout $end
$var wire 1 h inst_contador1|a~4_combout $end
$var wire 1 i inst_contador1|cont[5]~5_combout $end
$var wire 1 j inst_contador1|a~5_combout $end
$var wire 1 k inst_soma|Add0~1_sumout $end
$var wire 1 l inst_soma|Add0~2 $end
$var wire 1 m inst_soma|Add0~5_sumout $end
$var wire 1 n inst_soma|Add0~6 $end
$var wire 1 o inst_soma|Add0~9_sumout $end
$var wire 1 p inst_soma|Add0~10 $end
$var wire 1 q inst_soma|Add0~13_sumout $end
$var wire 1 r inst_soma|Add0~14 $end
$var wire 1 s inst_soma|Add0~17_sumout $end
$var wire 1 t inst_soma|Add0~18 $end
$var wire 1 u inst_soma|Add0~21_sumout $end
$var wire 1 v inst_soma|Add0~22 $end
$var wire 1 w inst_soma|Add0~25_sumout $end
$var wire 1 x inst_contador|a [5] $end
$var wire 1 y inst_contador|a [4] $end
$var wire 1 z inst_contador|a [3] $end
$var wire 1 { inst_contador|a [2] $end
$var wire 1 | inst_contador|a [1] $end
$var wire 1 } inst_contador|a [0] $end
$var wire 1 ~ inst_contador1|a [5] $end
$var wire 1 !! inst_contador1|a [4] $end
$var wire 1 "! inst_contador1|a [3] $end
$var wire 1 #! inst_contador1|a [2] $end
$var wire 1 $! inst_contador1|a [1] $end
$var wire 1 %! inst_contador1|a [0] $end
$var wire 1 &! inst_contador|cont [5] $end
$var wire 1 '! inst_contador|cont [4] $end
$var wire 1 (! inst_contador|cont [3] $end
$var wire 1 )! inst_contador|cont [2] $end
$var wire 1 *! inst_contador|cont [1] $end
$var wire 1 +! inst_contador|cont [0] $end
$var wire 1 ,! inst_contador1|cont [5] $end
$var wire 1 -! inst_contador1|cont [4] $end
$var wire 1 .! inst_contador1|cont [3] $end
$var wire 1 /! inst_contador1|cont [2] $end
$var wire 1 0! inst_contador1|cont [1] $end
$var wire 1 1! inst_contador1|cont [0] $end
$upscope $end
$upscope $end
$enddefinitions $end
#0
$dumpvars
0!
1"
1#
0)
0(
0'
0&
0%
0$
0/
0.
0-
0,
0+
0*
06
05
04
03
02
01
00
07
18
x9
1:
1;
1<
0=
0>
0?
0@
0A
0B
0C
0D
0E
0F
0G
0H
0I
0J
0K
0L
0M
0N
0O
0P
1Q
1R
0S
0T
0U
0V
0W
0X
0Y
0Z
0[
0\
0]
1^
1_
0`
0a
0b
0c
0d
0e
0f
0g
0h
0i
0j
0k
0l
0m
0n
0o
0p
0q
0r
0s
0t
0u
0v
0w
0}
0|
0{
0z
0y
0x
0%!
0$!
0#!
0"!
0!!
0~
0+!
0*!
0)!
0(!
0'!
0&!
01!
00!
0/!
0.!
0-!
0,!
$end
#5000
1!
1P
11!
1+!
1T
1S
0R
1a
1`
0_
#10000
0!
0P
#15000
1!
1P
10!
01!
1*!
0+!
1%!
1}
1=
1C
1l
1/
1)
0S
1R
1U
0`
1_
1b
1m
1J
15
#20000
0!
0P
#25000
1!
1P
11!
1+!
1$!
0%!
1|
0}
0=
1>
0C
1D
0l
1n
1.
0/
1(
0)
1V
0T
1S
0R
1c
0a
1`
0_
0m
1o
1K
0J
05
14
#30000
0!
0P
#35000
1!
1P
1/!
00!
01!
1)!
0*!
0+!
1%!
1}
1=
1C
1l
1/
1)
0S
1R
0U
1W
0`
1_
0b
1d
1m
1J
15
#40000
0!
0P
#45000
1!
1P
11!
1+!
1#!
0$!
0%!
1{
0|
0}
0=
0>
1?
0C
0D
1E
0l
0n
1p
1-
0.
0/
1'
0(
0)
1T
1S
0R
1a
1`
0_
0m
0o
1q
1L
0K
0J
05
04
13
#50000
0!
0P
#55000
1!
1P
10!
01!
1*!
0+!
1%!
1}
1=
1C
1l
1/
1)
0S
1R
1U
0`
1_
1b
1m
1J
15
#60000
0!
0P
#65000
1!
1P
11!
1+!
1$!
0%!
1|
0}
0=
1>
0C
1D
0l
1n
1.
0/
1(
0)
1X
0V
0T
1S
0R
1e
0c
0a
1`
0_
0m
1o
1K
0J
05
14
#70000
0!
0P
#75000
1!
1P
1.!
0/!
00!
01!
1(!
0)!
0*!
0+!
1%!
1}
1=
1C
1l
1/
1)
0S
1R
0U
0W
1Y
0`
1_
0b
0d
1f
1m
1J
15
#80000
0!
0P
#85000
1!
1P
11!
1+!
1"!
0#!
0$!
0%!
1z
0{
0|
0}
0=
0>
0?
1@
0C
0D
0E
1F
0l
0n
0p
1r
1,
0-
0.
0/
1&
0'
0(
0)
1T
1S
0R
1a
1`
0_
0m
0o
0q
1s
1M
0L
0K
0J
05
04
03
12
#90000
0!
0P
#95000
1!
1P
10!
01!
1*!
0+!
1%!
1}
1=
1C
1l
1/
1)
0S
1R
1U
0`
1_
1b
1m
1J
15
#100000
0!
0P
#105000
1!
1P
11!
1+!
1$!
0%!
1|
0}
0=
1>
0C
1D
0l
1n
1.
0/
1(
0)
1V
0T
1S
0R
1c
0a
1`
0_
0m
1o
1K
0J
05
14
#110000
0!
0P
#115000
1!
1P
1/!
00!
01!
1)!
0*!
0+!
1%!
1}
1=
1C
1l
1/
1)
0S
1R
0U
1W
0`
1_
0b
1d
1m
1J
15
#120000
0!
0P
#125000
1!
1P
11!
1+!
1#!
0$!
0%!
1{
0|
0}
0=
0>
1?
0C
0D
1E
0l
0n
1p
1-
0.
0/
1'
0(
0)
1T
1S
0R
1a
1`
0_
0m
0o
1q
1L
0K
0J
05
04
13
#130000
0"
0!
0Q
0P
0Y
0W
0T
0S
1R
#135000
1!
1P
10!
01!
1%!
0z
0{
0?
0@
1C
0p
1/
0&
0'
0`
1_
1b
1o
0q
1k
1I
0L
1K
0r
14
03
16
1q
1L
13
0s
0M
02
#140000
0!
0P
#145000
1!
1P
11!
1$!
0%!
0C
1D
1.
0/
1g
0e
0c
0a
1`
0_
0k
1m
1J
0I
06
15
#150000
0!
0P
#155000
1!
1P
1-!
0.!
0/!
00!
01!
1%!
1C
1/
0`
1_
0b
0d
0f
1h
1k
1I
16
#160000
0!
0P
#165000
1!
1P
11!
1!!
0"!
0#!
0$!
0%!
0C
0D
0E
0F
1G
1+
0,
0-
0.
0/
1a
1`
0_
0k
0m
0o
0q
1s
1M
0L
0K
0J
0I
06
05
04
03
12
#170000
0!
0P
#175000
1!
1P
10!
01!
1%!
1C
1/
0`
1_
1b
1k
1I
16
#180000
0#
0!
0^
0P
0h
0b
0_
#185000
1!
1P
0!!
0%!
0C
0G
0+
0/
0k
0s
0M
0I
06
02
#190000
0!
0P
#195000
1!
1P
#200000
0!
0P
#205000
1!
1P
#210000
0!
0P
#215000
1!
1P
#220000
0!
0P
#225000
1!
1P
#230000
1#
0!
1^
0P
1h
1b
1_
#235000
1!
1P
11!
1!!
1$!
1D
1G
1+
1.
1c
0a
1`
0_
1m
1s
1M
1J
15
12
#240000
0!
0P
#245000
1!
1P
1/!
00!
01!
1%!
1C
1/
0`
1_
0b
1d
1k
1I
16
#250000
0!
0P
#255000
1!
1P
11!
1#!
0$!
0%!
0C
0D
1E
1-
0.
0/
1a
1`
0_
0k
0m
1o
1K
0J
0I
06
05
14
#260000
1"
0!
1Q
0P
1Y
1W
1T
1S
0R
#265000
1!
1P
10!
01!
1*!
0+!
1%!
1z
1{
1}
1=
1?
1@
1C
1l
1p
1/
1&
1'
1)
0S
1R
1U
0`
1_
1b
0o
1q
1L
0K
1r
04
13
1m
0q
0L
1J
1t
15
03
0s
0M
02
1u
1N
11
#270000
0!
0P
#275000
1!
1P
11!
1+!
1$!
0%!
1|
0}
0=
1>
0C
1D
0l
1n
1.
0/
1(
0)
1Z
0X
0V
0T
1S
0R
1e
0c
0a
1`
0_
0m
1o
1K
0J
05
14
#280000
0!
0P
#285000
1!
1P
1.!
0/!
00!
01!
1'!
0(!
0)!
0*!
0+!
1%!
1}
1=
1C
1l
1/
1)
0S
1R
0U
0W
0Y
1[
0`
1_
0b
0d
1f
1m
1J
15
#290000
0!
0P
#295000
1!
1P
11!
1+!
1"!
0#!
0$!
0%!
1y
0z
0{
0|
0}
0=
0>
0?
0@
1A
0C
0D
0E
1F
0l
0n
0p
1,
0-
0.
0/
1%
0&
0'
0(
0)
1T
1S
0R
1a
1`
0_
1s
1M
0r
12
0m
0o
1q
1L
0K
0J
05
04
13
0s
0M
02
#300000
0!
0P
#305000
1!
1P
10!
01!
1*!
0+!
1%!
1}
1=
1C
1l
1/
1)
0S
1R
1U
0`
1_
1b
1m
1J
15
#310000
0!
0P
#315000
1!
1P
11!
1+!
1$!
0%!
1|
0}
0=
1>
0C
1D
0l
1n
1.
0/
1(
0)
1V
0T
1S
0R
1c
0a
1`
0_
0m
1o
1K
0J
05
14
#320000
0!
0P
#325000
1!
1P
1/!
00!
01!
1)!
0*!
0+!
1%!
1}
1=
1C
1l
1/
1)
0S
1R
0U
1W
0`
1_
0b
1d
1m
1J
15
#330000
0!
0P
#335000
1!
1P
11!
1+!
1#!
0$!
0%!
1{
0|
0}
0=
0>
1?
0C
0D
1E
0l
0n
1p
1-
0.
0/
1'
0(
0)
1T
1S
0R
1a
1`
0_
1r
0m
0o
0q
0L
0K
0J
05
04
03
1s
1M
12
#340000
0!
0P
#345000
1!
1P
10!
01!
1*!
0+!
1%!
1}
1=
1C
1l
1/
1)
0S
1R
1U
0`
1_
1i
1b
1m
0i
1J
15
#350000
0!
0P
#355000
1!
1P
11!
1+!
1$!
0%!
1|
0}
0=
1>
0C
1D
0l
1n
1.
0/
1(
0)
1X
0V
0T
1S
0R
0g
0e
0c
0a
1`
0_
0m
1o
1i
1K
0J
05
14
#360000
0!
0P
#365000
1!
1P
1,!
0-!
0.!
0/!
00!
01!
1(!
0)!
0*!
0+!
1%!
1}
1=
1C
1l
1/
1)
0S
1R
0U
0W
1Y
0`
1_
0b
0d
0f
0h
1j
1m
1J
15
#370000
0!
0P
#375000
1!
1P
11!
1+!
1~
0!!
0"!
0#!
0$!
0%!
1z
0{
0|
0}
0=
0>
0?
1@
0C
0D
0E
0F
0G
1H
0l
0n
0p
1v
1*
0+
0,
0-
0.
0/
1&
0'
0(
0)
1T
1S
0R
1a
1`
0_
0s
0u
0N
0M
0r
02
01
0m
0o
1q
1w
1O
1L
0K
0J
0t
05
04
13
10
1s
1M
0v
12
1u
1N
11
0w
0O
00
#380000
0!
0P
#385000
1!
1P
10!
01!
1*!
0+!
1%!
1}
1=
1C
1l
1/
1)
0S
1R
1U
0`
1_
1b
1m
1J
15
#390000
0#
0!
0^
0P
0j
0b
0_
#395000
1!
1P
1+!
0~
0%!
1|
0}
0=
1>
0C
0H
0l
1n
0*
0/
1(
0)
1V
0T
1S
0R
0m
0u
0N
0J
0n
05
01
1m
1o
1K
1J
15
14
0o
0K
04
#400000
0!
0P
#405000
1!
1P
1)!
0*!
0+!
1}
1=
1)
0S
1R
0U
1W
1k
1I
16
#410000
0!
0P
#415000
1!
1P
1+!
1{
0|
0}
0=
0>
1?
1'
0(
0)
1T
1S
0R
0k
0m
1o
1K
0J
0I
06
05
14
#420000
0!
0P
#425000
1!
1P
1*!
0+!
1}
1=
1)
0S
1R
1\
1U
1k
1I
16
0\
#430000
0!
0P
#435000
1!
1P
1+!
1|
0}
0=
1>
1(
0)
0Z
0X
0V
0T
1S
0R
0k
1m
1J
0I
06
15
1\
#440000
0!
0P
#445000
1!
1P
1&!
0'!
0(!
0)!
0*!
0+!
1}
1=
1)
0S
1R
0U
0W
0Y
0[
1]
1k
1I
16
#450000
0"
0!
0Q
0P
0]
0R
#455000
1!
1P
0y
0z
0{
0|
0}
0=
0>
0?
0@
0A
0%
0&
0'
0(
0)
0k
0m
0o
0q
0s
0M
0L
0K
0J
0I
06
05
04
03
02
#460000
0!
0P
#465000
1!
1P
#470000
1#
0!
1^
0P
1j
1b
1_
#475000
1!
1P
11!
1~
1$!
1D
1H
1*
1.
1c
0a
1`
0_
1m
1u
1N
1J
15
11
#480000
0!
0P
#485000
1!
1P
1/!
00!
01!
1%!
1C
1/
0`
1_
0b
1d
1k
1I
16
#490000
0!
0P
#495000
1!
1P
11!
1#!
0$!
0%!
0C
0D
1E
1-
0.
0/
1a
1`
0_
0k
0m
1o
1K
0J
0I
06
05
14
#500000
0!
0P
#505000
1!
1P
10!
01!
1%!
1C
1/
0`
1_
1b
1k
1I
16
#510000
0!
0P
#515000
1!
1P
11!
1$!
0%!
0C
1D
1.
0/
1e
0c
0a
1`
0_
0k
1m
1J
0I
06
15
#520000
0!
0P
#525000
1!
1P
1.!
0/!
00!
01!
1%!
1C
1/
0`
1_
0b
0d
1f
1k
1I
16
#530000
0!
0P
#535000
1!
1P
11!
1"!
0#!
0$!
0%!
0C
0D
0E
1F
1,
0-
0.
0/
1a
1`
0_
0k
0m
0o
1q
1L
0K
0J
0I
06
05
04
13
#540000
0!
0P
#545000
1!
1P
10!
01!
1%!
1C
1/
0`
1_
1b
1k
1I
16
#550000
0!
0P
#555000
1!
1P
11!
1$!
0%!
0C
1D
1.
0/
1c
0a
1`
0_
0k
1m
1J
0I
06
15
#560000
0!
0P
#565000
1!
1P
1/!
00!
01!
1%!
1C
1/
0`
1_
0b
1d
1k
1I
16
#570000
0!
0P
#575000
1!
1P
11!
1#!
0$!
0%!
0C
0D
1E
1-
0.
0/
1a
1`
0_
0k
0m
1o
1K
0J
0I
06
05
14
#580000
0!
0P
#585000
1!
1P
10!
01!
1%!
1C
1/
0`
1_
1b
1k
1I
16
#590000
0!
0P
#595000
1!
1P
11!
1$!
0%!
0C
1D
1.
0/
1g
0e
0c
0a
1`
0_
0k
1m
1J
0I
06
15
#600000
0#
0!
0^
0P
0j
0g
0f
1e
0d
1c
0b
1a
0`
1_
#605000
1!
1P
0~
0"!
0#!
0$!
0D
0E
0F
0H
0*
0,
0-
0.
0m
0o
0q
0u
0N
0L
0K
0J
05
04
03
01
#610000
1"
0!
1Q
0P
1]
1R
#615000
1!
1P
1+!
1x
1B
1$
1T
1S
0R
1u
1N
11
#620000
0!
0P
#625000
1!
1P
1*!
0+!
1}
1=
1)
0S
1R
1U
1k
1I
16
#630000
0!
0P
#635000
1!
1P
1+!
1|
0}
0=
1>
1(
0)
1V
0T
1S
0R
0k
1m
1J
0I
06
15
#640000
0!
0P
#645000
1!
1P
1)!
0*!
0+!
1}
1=
1)
0S
1R
0U
1W
1k
1I
16
#650000
0!
0P
#655000
1!
1P
1+!
1{
0|
0}
0=
0>
1?
1'
0(
0)
1T
1S
0R
0k
0m
1o
1K
0J
0I
06
05
14
#660000
0!
0P
#665000
1!
1P
1*!
0+!
1}
1=
1)
0S
1R
1U
1k
1I
16
#670000
0!
0P
#675000
1!
1P
1+!
1|
0}
0=
1>
1(
0)
1X
0V
0T
1S
0R
0k
1m
1J
0I
06
15
#680000
0!
0P
#685000
1!
1P
1(!
0)!
0*!
0+!
1}
1=
1)
0S
1R
0U
0W
1Y
1k
1I
16
#690000
0!
0P
#695000
1!
1P
1+!
1z
0{
0|
0}
0=
0>
0?
1@
1&
0'
0(
0)
1T
1S
0R
0k
0m
0o
1q
1L
0K
0J
0I
06
05
04
13
#700000
0!
0P
#705000
1!
1P
1*!
0+!
1}
1=
1)
0S
1R
1U
1k
1I
16
#710000
0!
0P
#715000
1!
1P
1+!
1|
0}
0=
1>
1(
0)
1V
0T
1S
0R
0k
1m
1J
0I
06
15
#720000
0!
0P
#725000
1!
1P
1)!
0*!
0+!
1}
1=
1)
0S
1R
0U
1W
1k
1I
16
#730000
0!
0P
#735000
1!
1P
1+!
1{
0|
0}
0=
0>
1?
1'
0(
0)
1T
1S
0R
0k
0m
1o
1K
0J
0I
06
05
14
#740000
0!
0P
#745000
1!
1P
1*!
0+!
1}
1=
1)
0S
1R
1U
1k
1I
16
#750000
0!
0P
#755000
1!
1P
1+!
1|
0}
0=
1>
1(
0)
1Z
0X
0V
0T
1S
0R
0k
1m
1J
0I
06
15
#760000
0!
0P
#765000
1!
1P
1'!
0(!
0)!
0*!
0+!
1}
1=
1)
0S
1R
0U
0W
0Y
1[
1k
1I
16
#770000
0!
0P
#775000
1!
1P
1+!
1y
0z
0{
0|
0}
0=
0>
0?
0@
1A
1%
0&
0'
0(
0)
1T
1S
0R
0k
0m
0o
0q
1s
1M
0L
0K
0J
0I
06
05
04
03
12
#780000
0!
0P
#785000
1!
1P
1*!
0+!
1}
1=
1)
0S
1R
1U
1k
1I
16
#790000
0!
0P
#795000
1!
1P
1+!
1|
0}
0=
1>
1(
0)
1V
0T
1S
0R
0k
1m
1J
0I
06
15
#800000
0!
0P
#805000
1!
1P
1)!
0*!
0+!
1}
1=
1)
0S
1R
0U
1W
1k
1I
16
#810000
0!
0P
#815000
1!
1P
1+!
1{
0|
0}
0=
0>
1?
1'
0(
0)
1T
1S
0R
0k
0m
1o
1K
0J
0I
06
05
14
#820000
1#
0!
1^
0P
1j
1g
1f
0e
1d
0c
1b
0a
1`
0_
#825000
1!
1P
1-!
0.!
0/!
00!
01!
1*!
0+!
1~
1"!
1#!
1$!
1%!
1}
1=
1C
1D
1E
1F
1H
1l
1p
1v
1*
1,
1-
1.
1/
1)
0S
1R
1U
0`
1_
0b
0d
0f
1h
1m
0o
1q
0u
0N
1L
0K
1J
1n
1r
15
04
13
01
0m
0q
1w
1O
0L
0J
1t
05
03
10
1o
0s
0M
1K
14
02
1u
1N
11
#830000
0!
0P
#835000
1!
1P
11!
1+!
1!!
0"!
0#!
0$!
0%!
1|
0}
0=
1>
0C
0D
0E
0F
1G
0l
0r
1+
0,
0-
0.
0/
1(
0)
1X
0V
0T
1S
0R
1a
1`
0_
0o
1q
1s
1M
1L
0K
0n
04
13
12
1m
0s
0M
1J
0p
15
02
1o
1K
14
0q
0L
03
#840000
0!
0P
#845000
1!
1P
10!
01!
1(!
0)!
0*!
0+!
1%!
1}
1=
1C
1l
1/
1)
0S
1R
0U
0W
1Y
0`
1_
1b
1n
0m
0J
1p
05
0o
0K
04
1q
1L
13
#850000
0!
0P
#855000
1!
1P
11!
1+!
1$!
0%!
1z
0{
0|
0}
0=
0>
0?
1@
0C
1D
0l
0p
1r
1.
0/
1&
0'
0(
0)
1T
1S
0R
1c
0a
1`
0_
1o
0q
0L
1K
0n
0r
14
03
1m
1q
1s
1M
1L
1J
15
13
12
0o
0s
0M
0K
04
02
#860000
0!
0P
#865000
1!
1P
1/!
00!
01!
1*!
0+!
1%!
1}
1=
1C
1l
1/
1)
0S
1R
1U
0`
1_
0b
1d
1n
0m
0J
05
1o
1K
14
#870000
0!
0P
#875000
1!
1P
11!
1+!
1#!
0$!
0%!
1|
0}
0=
1>
0C
0D
1E
0l
1p
1-
0.
0/
1(
0)
1V
0T
1S
0R
1a
1`
0_
0o
0K
0n
1r
04
1m
0q
0L
1J
0p
15
03
1o
1s
1M
1K
0r
14
12
1q
1L
13
0s
0M
02
#880000
0!
0P
#885000
1!
1P
10!
01!
1)!
0*!
0+!
1%!
1}
1=
1C
1l
1/
1)
0S
1R
0U
1W
0`
1_
1b
1n
0m
0J
1p
05
0o
0K
1r
04
0q
0L
03
1s
1M
12
#890000
0!
0P
#895000
1!
1P
11!
1+!
1$!
0%!
1{
0|
0}
0=
0>
1?
0C
1D
0l
1.
0/
1'
0(
0)
1T
1S
0R
1e
0c
0a
1`
0_
1o
1K
0n
14
1m
1J
15
0o
0K
04
#900000
0!
0P
#905000
1!
1P
1.!
0/!
00!
01!
1*!
0+!
1%!
1}
1=
1C
1l
1/
1)
0S
1R
0\
1U
0`
1_
0b
0d
1f
1n
0m
1\
0J
05
1o
1K
14
#910000
0!
0P
#915000
1!
1P
11!
1+!
1"!
0#!
0$!
0%!
1|
0}
0=
1>
0C
0D
0E
1F
0l
1,
0-
0.
0/
1(
0)
0Z
0X
0V
0T
1S
0R
1a
1`
0_
0o
1q
1L
0K
0n
04
13
1m
0\
1J
0p
15
1o
1K
14
0q
0L
03
#920000
0!
0P
#925000
1!
1P
10!
01!
0&!
0'!
0(!
0)!
0*!
0+!
1%!
1}
1=
1C
1l
1/
1)
0S
1R
0U
0W
0Y
0[
0]
0`
1_
1b
1n
0m
0J
1p
05
0o
0K
04
1q
1L
13
#930000
0!
0P
#935000
1!
1P
11!
1+!
1$!
0%!
0x
0y
0z
0{
0|
0}
0=
0>
0?
0@
0A
0B
0C
1D
0l
0p
1.
0/
0$
0%
0&
0'
0(
0)
1T
1S
0R
1c
0a
1`
0_
1o
0q
0s
0u
0N
0M
0L
1K
0n
0r
14
03
02
01
1m
1q
1L
1J
0t
15
13
0o
1s
1M
0K
0v
04
12
1u
1N
11
0w
0O
00
#940000
0!
0P
#945000
1!
1P
1/!
00!
01!
1*!
0+!
1%!
1}
1=
1C
1l
1/
1)
0S
1R
1U
0`
1_
0b
1d
1n
0m
0J
05
1o
1K
14
#950000
0!
0P
#955000
1!
1P
11!
1+!
1#!
0$!
0%!
1|
0}
0=
1>
0C
0D
1E
0l
1p
1-
0.
0/
1(
0)
1V
0T
1S
0R
1a
1`
0_
0o
0K
0n
1r
04
1m
0q
0L
1J
0p
1t
15
03
1o
0s
0M
1K
0r
1v
14
02
1q
0u
0N
1L
0t
13
01
1s
1w
1O
1M
0v
12
10
1u
1N
11
0w
0O
00
#960000
0!
0P
#965000
1!
1P
10!
01!
1)!
0*!
0+!
1%!
1}
1=
1C
1l
1/
1)
0S
1R
0U
1W
0`
1_
0i
1b
1n
0m
1i
0J
1p
05
0o
0K
1r
04
0q
0L
1t
03
0s
0M
1v
02
0u
0N
01
1w
1O
10
#970000
0!
0P
#975000
1!
1P
11!
1+!
1$!
0%!
1{
0|
0}
0=
0>
1?
0C
1D
0l
1.
0/
1'
0(
0)
1T
1S
0R
0g
0e
0c
0a
1`
0_
1o
1K
0n
14
1m
0i
1J
15
0o
0K
04
#980000
0!
0P
#985000
1!
1P
0,!
0-!
0.!
0/!
00!
01!
1*!
0+!
1%!
1}
1=
1C
1l
1/
1)
0S
1R
1U
0`
1_
0b
0d
0f
0h
0j
1n
0m
0J
05
1o
1K
14
#990000
0!
0P
#995000
1!
1P
11!
1+!
0~
0!!
0"!
0#!
0$!
0%!
1|
0}
0=
1>
0C
0D
0E
0F
0G
0H
0l
0r
0t
0v
0*
0+
0,
0-
0.
0/
1(
0)
1X
0V
0T
1S
0R
1a
1`
0_
0o
1q
1s
1u
1N
1M
1L
0K
0n
04
13
12
11
1m
0s
0u
0w
0O
0N
0M
1J
0p
15
02
01
00
1o
1K
14
0q
0L
03
