Teste2_contador/simulation/qsim/Contador.msim.vcd
$comment
	File created using the following command:
		vcd file Contador.msim.vcd -direction
$end
$date
	Tue Sep 24 17:58:30 2024
$end
$version
	ModelSim Version 2020.1
$end
$timescale
	1ps
$end

$scope module cont_topLevel_vlg_vec_tst $end
$var reg 1 ! clk $end
$var reg 1 " clr_n $end
$var wire 1 # out [5] $end
$var wire 1 $ out [4] $end
$var wire 1 % out [3] $end
$var wire 1 & out [2] $end
$var wire 1 ' out [1] $end
$var wire 1 ( out [0] $end
$var wire 1 ) out2 [5] $end
$var wire 1 * out2 [4] $end
$var wire 1 + out2 [3] $end
$var wire 1 , out2 [2] $end
$var wire 1 - out2 [1] $end
$var wire 1 . out2 [0] $end

$scope module i1 $end
$var wire 1 / gnd $end
$var wire 1 0 vcc $end
$var wire 1 1 unknown $end
$var tri1 1 2 devclrn $end
$var tri1 1 3 devpor $end
$var tri1 1 4 devoe $end
$var wire 1 5 out[0]~output_o $end
$var wire 1 6 out[1]~output_o $end
$var wire 1 7 out[2]~output_o $end
$var wire 1 8 out[3]~output_o $end
$var wire 1 9 out[4]~output_o $end
$var wire 1 : out[5]~output_o $end
$var wire 1 ; out2[0]~output_o $end
$var wire 1 < out2[1]~output_o $end
$var wire 1 = out2[2]~output_o $end
$var wire 1 > out2[3]~output_o $end
$var wire 1 ? out2[4]~output_o $end
$var wire 1 @ out2[5]~output_o $end
$var wire 1 A clk~input_o $end
$var wire 1 B inst_cont|cont[0]~5_combout $end
$var wire 1 C clr_n~input_o $end
$var wire 1 D inst_cont|cont[1]~0_combout $end
$var wire 1 E inst_cont|cont[2]~1_combout $end
$var wire 1 F inst_cont|cont[3]~2_combout $end
$var wire 1 G inst_cont|cont[4]~3_combout $end
$var wire 1 H inst_cont|cont[5]~4_combout $end
$var wire 1 I inst_cont|out [5] $end
$var wire 1 J inst_cont|out [4] $end
$var wire 1 K inst_cont|out [3] $end
$var wire 1 L inst_cont|out [2] $end
$var wire 1 M inst_cont|out [1] $end
$var wire 1 N inst_cont|out [0] $end
$var wire 1 O inst_cont|cont [5] $end
$var wire 1 P inst_cont|cont [4] $end
$var wire 1 Q inst_cont|cont [3] $end
$var wire 1 R inst_cont|cont [2] $end
$var wire 1 S inst_cont|cont [1] $end
$var wire 1 T inst_cont|cont [0] $end
$upscope $end
$upscope $end
$enddefinitions $end
#0
$dumpvars
0!
0"
0(
0'
0&
0%
0$
0#
0.
0-
0,
0+
0*
0)
0/
10
x1
12
13
14
05
06
07
08
09
0:
0;
0<
0=
0>
0?
0@
0A
1B
0C
0D
0E
0F
0G
0H
0N
0M
0L
0K
0J
0I
0T
0S
0R
0Q
0P
0O
$end
#10000
1!
1A
#20000
0!
0A
#30000
1!
1A
#40000
0!
0A
#50000
1!
1A
#60000
0!
0A
#70000
1!
1A
#80000
0!
0A
#90000
1!
1A
#100000
0!
0A
#110000
1!
1A
#120000
0!
0A
#130000
1!
1A
#140000
1"
0!
1C
0A
#150000
1!
1A
1T
1;
1.
1D
0B
#160000
0!
0A
#170000
1!
1A
1S
1N
0T
0;
15
1<
1-
1(
0.
1B
#180000
0!
0A
#190000
1!
1A
1M
0N
1T
1;
05
16
1'
0(
1.
1E
0D
0B
#200000
0!
0A
#210000
1!
1A
1R
0S
1N
0T
0;
15
0<
1=
1,
0-
1(
0.
1B
#220000
0!
0A
#230000
1!
1A
1L
0M
0N
1T
1;
05
06
17
1&
0'
0(
1.
1D
0B
#240000
0!
0A
#250000
1!
1A
1S
1N
0T
0;
15
1<
1-
1(
0.
1B
#260000
0!
0A
#270000
1!
1A
1M
0N
1T
1;
05
16
1'
0(
1.
1F
0E
0D
0B
#280000
0!
0A
#290000
1!
1A
1Q
0R
0S
1N
0T
0;
15
0<
0=
1>
1+
0,
0-
1(
0.
1B
#300000
0!
0A
#310000
1!
1A
1K
0L
0M
0N
1T
1;
05
06
07
18
1%
0&
0'
0(
1.
1D
0B
#320000
0!
0A
#330000
1!
1A
1S
1N
0T
0;
15
1<
1-
1(
0.
1B
#340000
0!
0A
#350000
1!
1A
1M
0N
1T
1;
05
16
1'
0(
1.
1E
0D
0B
#360000
0!
0A
#370000
1!
1A
1R
0S
1N
0T
0;
15
0<
1=
1,
0-
1(
0.
1B
#380000
0!
0A
#390000
1!
1A
1L
0M
0N
1T
1;
05
06
17
1&
0'
0(
1.
1D
0B
#400000
0!
0A
#410000
1!
1A
1S
1N
0T
0;
15
1<
1-
1(
0.
1B
#420000
0!
0A
#430000
1!
1A
1M
0N
1T
1;
05
16
1'
0(
1.
1G
0F
0E
0D
0B
#440000
0!
0A
#450000
1!
1A
1P
0Q
0R
0S
1N
0T
0;
15
0<
0=
0>
1?
1*
0+
0,
0-
1(
0.
1B
#460000
0!
0A
#470000
1!
1A
1J
0K
0L
0M
0N
1T
1;
05
06
07
08
19
1$
0%
0&
0'
0(
1.
1D
0B
#480000
0!
0A
#490000
1!
1A
1S
1N
0T
0;
15
1<
1-
1(
0.
1B
#500000
0!
0A
#510000
1!
1A
1M
0N
1T
1;
05
16
1'
0(
1.
1E
0D
0B
#520000
0!
0A
#530000
1!
1A
1R
0S
1N
0T
0;
15
0<
1=
1,
0-
1(
0.
1B
#540000
0"
0!
0C
0A
0N
0M
0R
0P
0J
09
0?
0=
06
05
0(
0'
0,
0*
0$
0G
0E
#550000
1!
1A
#560000
0!
0A
#570000
1!
1A
#580000
0!
0A
#590000
1!
1A
#600000
0!
0A
#610000
1!
1A
#620000
0!
0A
#630000
1!
1A
#640000
0!
0A
#650000
1!
1A
#660000
0!
0A
#670000
1!
1A
#680000
0!
0A
#690000
1!
1A
#700000
0!
0A
#710000
1!
1A
#720000
0!
0A
#730000
1!
1A
#740000
0!
0A
#750000
1!
1A
#760000
0!
0A
#770000
1!
1A
#780000
0!
0A
#790000
1!
1A
#800000
0!
0A
#810000
1!
1A
#820000
0!
0A
#830000
1!
1A
#840000
0!
0A
#850000
1!
1A
#860000
0!
0A
#870000
1!
1A
#880000
0!
0A
#890000
1!
1A
#900000
0!
0A
#910000
1!
1A
#920000
0!
0A
#930000
1!
1A
#940000
0!
0A
#950000
1!
1A
#960000
0!
0A
#970000
1!
1A
#980000
0!
0A
#990000
1!
1A
