Exercicio3/simulation/qsim/Exercicio3.msim.vcd
$comment
	File created using the following command:
		vcd file Exercicio3.msim.vcd -direction
$end
$date
	Wed Oct 02 15:16:39 2024
$end
$version
	ModelSim Version 2020.1
$end
$timescale
	1ps
$end

$scope module Cont64I_vlg_vec_tst $end
$var reg 1 ! clk $end
$var reg 1 " clr_n $end
$var reg 2 # operacao [1:0] $end
$var reg 6 $ valor [5:0] $end
$var wire 1 % a [5] $end
$var wire 1 & a [4] $end
$var wire 1 ' a [3] $end
$var wire 1 ( a [2] $end
$var wire 1 ) a [1] $end
$var wire 1 * a [0] $end
$var wire 1 + b [5] $end
$var wire 1 , b [4] $end
$var wire 1 - b [3] $end
$var wire 1 . b [2] $end
$var wire 1 / b [1] $end
$var wire 1 0 b [0] $end

$scope module i1 $end
$var wire 1 1 gnd $end
$var wire 1 2 vcc $end
$var wire 1 3 unknown $end
$var tri1 1 4 devclrn $end
$var tri1 1 5 devpor $end
$var tri1 1 6 devoe $end
$var wire 1 7 a[0]~output_o $end
$var wire 1 8 a[1]~output_o $end
$var wire 1 9 a[2]~output_o $end
$var wire 1 : a[3]~output_o $end
$var wire 1 ; a[4]~output_o $end
$var wire 1 < a[5]~output_o $end
$var wire 1 = b[0]~output_o $end
$var wire 1 > b[1]~output_o $end
$var wire 1 ? b[2]~output_o $end
$var wire 1 @ b[3]~output_o $end
$var wire 1 A b[4]~output_o $end
$var wire 1 B b[5]~output_o $end
$var wire 1 C clk~input_o $end
$var wire 1 D inst_Cont64I|Add0~1_sumout $end
$var wire 1 E valor[0]~input_o $end
$var wire 1 F clr_n~input_o $end
$var wire 1 G operacao[1]~input_o $end
$var wire 1 H operacao[0]~input_o $end
$var wire 1 I inst_Cont64I|cont[0]~0_combout $end
$var wire 1 J inst_Cont64I|Add0~2 $end
$var wire 1 K inst_Cont64I|Add0~5_sumout $end
$var wire 1 L valor[1]~input_o $end
$var wire 1 M inst_Cont64I|Add0~6 $end
$var wire 1 N inst_Cont64I|Add0~9_sumout $end
$var wire 1 O valor[2]~input_o $end
$var wire 1 P inst_Cont64I|Add0~10 $end
$var wire 1 Q inst_Cont64I|Add0~13_sumout $end
$var wire 1 R valor[3]~input_o $end
$var wire 1 S inst_Cont64I|Add0~14 $end
$var wire 1 T inst_Cont64I|Add0~17_sumout $end
$var wire 1 U valor[4]~input_o $end
$var wire 1 V inst_Cont64I|Add0~18 $end
$var wire 1 W inst_Cont64I|Add0~21_sumout $end
$var wire 1 X valor[5]~input_o $end
$var wire 1 Y inst_Cont64INV|Add0~1_sumout $end
$var wire 1 Z inst_Cont64INV|cont[5]~0_combout $end
$var wire 1 [ inst_Cont64INV|Add0~2 $end
$var wire 1 \ inst_Cont64INV|Add0~5_sumout $end
$var wire 1 ] inst_Cont64INV|Add0~6 $end
$var wire 1 ^ inst_Cont64INV|Add0~9_sumout $end
$var wire 1 _ inst_Cont64INV|Add0~10 $end
$var wire 1 ` inst_Cont64INV|Add0~13_sumout $end
$var wire 1 a inst_Cont64INV|Add0~14 $end
$var wire 1 b inst_Cont64INV|Add0~17_sumout $end
$var wire 1 c inst_Cont64INV|Add0~18 $end
$var wire 1 d inst_Cont64INV|Add0~21_sumout $end
$var wire 1 e inst_Cont64I|cont [5] $end
$var wire 1 f inst_Cont64I|cont [4] $end
$var wire 1 g inst_Cont64I|cont [3] $end
$var wire 1 h inst_Cont64I|cont [2] $end
$var wire 1 i inst_Cont64I|cont [1] $end
$var wire 1 j inst_Cont64I|cont [0] $end
$var wire 1 k inst_Cont64INV|cont [5] $end
$var wire 1 l inst_Cont64INV|cont [4] $end
$var wire 1 m inst_Cont64INV|cont [3] $end
$var wire 1 n inst_Cont64INV|cont [2] $end
$var wire 1 o inst_Cont64INV|cont [1] $end
$var wire 1 p inst_Cont64INV|cont [0] $end
$upscope $end
$upscope $end
$enddefinitions $end
#0
$dumpvars
0!
0"
b0 #
b0 $
0*
0)
0(
0'
0&
0%
00
0/
0.
0-
0,
0+
01
12
x3
14
15
16
07
08
09
0:
0;
0<
0=
0>
0?
0@
0A
0B
0C
1D
0E
0F
0G
0H
1I
0J
0K
0L
0M
0N
0O
0P
0Q
0R
0S
0T
0U
0V
0W
0X
1Y
1Z
0[
0\
0]
0^
0_
0`
0a
0b
0c
0d
0j
0i
0h
0g
0f
0e
0p
0o
0n
0m
0l
0k
$end
#5000
1!
1C
1p
1=
1[
10
0Y
1\
#10000
0!
0C
#15000
1!
1C
1o
0p
0=
1>
0[
1]
1/
00
1Y
0\
0]
1\
1^
0^
#20000
0!
0C
#25000
1!
1C
1p
1=
1[
10
0Y
1]
0\
1^
#30000
0!
0C
#35000
1!
1C
1n
0o
0p
0=
0>
1?
0[
0]
1_
1.
0/
00
1Y
1\
0^
0_
0\
1^
1`
0`
#40000
0!
0C
#45000
1!
1C
1p
1=
1[
10
0Y
1\
#50000
0!
0C
#55000
1!
1C
1o
0p
0=
1>
0[
1]
1/
00
1Y
0\
0]
1_
1\
0^
0_
1^
1`
0`
#60000
0!
0C
#65000
1!
1C
1p
1=
1[
10
0Y
1]
0\
1_
0^
1`
#70000
0!
0C
#75000
1!
1C
1m
0n
0o
0p
0=
0>
0?
1@
0[
0]
0_
1a
1-
0.
0/
00
1Y
1\
1^
0`
0a
0\
0^
1`
1b
0b
#80000
0!
0C
#85000
1!
1C
1p
1=
1[
10
0Y
1\
#90000
0!
0C
#95000
1!
1C
1o
0p
0=
1>
0[
1]
1/
00
1Y
0\
0]
1\
1^
0^
#100000
1"
0!
1F
0C
#105000
1!
1C
0m
0o
1j
17
0>
0@
1J
0-
0/
1*
0D
0\
0`
1K
#110000
0!
0C
#115000
1!
1C
1i
0j
07
18
0J
1M
1)
0*
1D
0K
0M
1K
1N
0N
#120000
0!
0C
#125000
1!
1C
1j
17
1J
1*
0D
1M
0K
1N
#130000
0!
0C
#135000
1!
1C
1h
0i
0j
07
08
19
0J
0M
1P
1(
0)
0*
1D
1K
0N
0P
0K
1N
1Q
0Q
#140000
0!
0C
#145000
1!
1C
1j
17
1J
1*
0D
1K
#150000
b1 #
0!
1H
0C
1P
1M
1d
1b
1`
1^
1\
1W
1T
1Q
0N
0K
1S
0Q
1N
1V
0T
0W
#155000
1!
1C
0j
07
0J
0*
1D
0M
1K
0N
#160000
0!
0C
#165000
1!
1C
0h
1i
1j
17
18
09
1J
1M
0P
0(
1)
1*
0D
0K
1N
1P
0S
1K
0N
1Q
1S
0V
0Q
1T
1V
0T
1W
0W
#170000
0!
0C
#175000
1!
1C
0j
07
0J
0*
1D
0K
#180000
0!
0C
#185000
1!
1C
0i
1j
17
08
1J
0M
0)
1*
0D
1K
1M
0P
0K
1N
1P
0S
0N
1Q
1S
0V
0Q
1T
1V
0T
1W
0W
#190000
0!
0C
#195000
1!
1C
0j
07
0J
0*
1D
0M
1K
0P
1N
0S
1Q
0V
1T
1W
#200000
0"
0!
0F
0C
#205000
1!
1C
1k
1l
1m
1n
1o
1p
1=
1>
1?
1@
1A
1B
1[
1]
1_
1a
1c
1+
1,
1-
1.
1/
10
0Y
0\
0^
0`
0b
0d
1\
1^
1`
1b
1d
#210000
0!
0C
#215000
1!
1C
0p
0=
0[
00
1Y
0\
#220000
0!
0C
#225000
1!
1C
0o
1p
1=
0>
1[
0]
0/
10
0Y
1\
1]
0\
0^
1^
#230000
0!
0C
#235000
1!
1C
0p
0=
0[
00
1Y
0]
1\
0^
#240000
0!
0C
#245000
1!
1C
0n
1o
1p
1=
1>
0?
1[
1]
0_
0.
1/
10
0Y
0\
1^
1_
1\
0^
0`
1`
#250000
b0 #
0!
0H
0C
0_
0d
0b
0`
1^
0\
0W
0T
0Q
0N
0K
0a
1`
0c
1b
1d
#255000
1!
1C
1n
0o
0p
0=
0>
1?
0[
0]
1_
1.
0/
00
1Y
1\
0^
0_
1a
0\
1^
0`
0a
1c
1`
0b
0c
1b
0d
1d
#260000
0!
0C
#265000
1!
1C
1p
1=
1[
10
0Y
1\
#270000
0!
0C
#275000
1!
1C
1o
0p
0=
1>
0[
1]
1/
00
1Y
0\
0]
1_
1\
0^
0_
1a
1^
0`
0a
1c
1`
0b
0c
1b
0d
1d
#280000
0!
0C
#285000
1!
1C
1p
1=
1[
10
0Y
1]
0\
1_
0^
1a
0`
1c
0b
0d
#290000
0!
0C
#295000
1!
1C
0k
0l
0m
0n
0o
0p
0=
0>
0?
0@
0A
0B
0[
0]
0_
0a
0c
0+
0,
0-
0.
0/
00
1Y
1\
1^
1`
1b
1d
0\
0^
0`
0b
0d
#300000
1"
0!
1F
0C
#305000
1!
1C
1j
17
1J
1*
0D
1K
#310000
0!
0C
#315000
1!
1C
1i
0j
07
18
0J
1M
1)
0*
1D
0K
0M
1K
1N
0N
#320000
0!
0C
#325000
1!
1C
1j
17
1J
1*
0D
1M
0K
1N
#330000
0!
0C
#335000
1!
1C
1h
0i
0j
07
08
19
0J
0M
1P
1(
0)
0*
1D
1K
0N
0P
0K
1N
1Q
0Q
#340000
b10000 $
b11000 $
b11100 $
b11110 $
b11111 $
0!
1E
1L
1O
1R
1U
0C
#345000
1!
1C
1j
17
1J
1*
0D
1K
#350000
b10 #
0!
1G
0C
#355000
1!
1C
1f
1g
1i
18
1:
1;
1M
1&
1'
1)
0K
1Q
1T
1P
0N
1S
0Q
1V
0T
1W
#360000
0!
0C
#365000
1!
1C
#370000
0!
0C
#375000
1!
1C
#380000
0!
0C
#385000
1!
1C
#390000
0!
0C
#395000
1!
1C
#400000
0"
0!
0F
0C
#405000
1!
1C
1l
1m
1n
1o
1p
0f
0g
0h
0i
0j
07
08
09
0:
0;
1=
1>
1?
1@
1A
0J
0M
0P
0S
0V
1[
1,
1-
1.
1/
10
0&
0'
0(
0)
0*
1D
1K
1N
1Q
1T
0Y
1\
1^
1`
1b
1]
0K
0N
0Q
0T
0W
0\
1_
0^
1a
0`
1c
0b
1d
#410000
b1111 $
b1011 $
0!
0O
0U
0C
#415000
1!
1C
0l
0n
0?
0A
0_
0c
0,
0.
1^
1b
0a
1`
0d
0b
#420000
0!
0C
#425000
1!
1C
#430000
0!
0C
#435000
1!
1C
#440000
0!
0C
#445000
1!
1C
#450000
0!
0C
#455000
1!
1C
#460000
b0 #
0!
0G
0C
#465000
1!
1C
1n
0o
0p
0=
0>
1?
0[
0]
1_
1.
0/
00
1Y
1\
0^
0_
1a
0\
1^
0`
0a
1`
1b
0b
#470000
0!
0C
#475000
1!
1C
1p
1=
1[
10
0Y
1\
#480000
0!
0C
#485000
1!
1C
1o
0p
0=
1>
0[
1]
1/
00
1Y
0\
0]
1_
1\
0^
0_
1a
1^
0`
0a
1`
1b
0b
#490000
0!
0C
#495000
1!
1C
1p
1=
1[
10
0Y
1]
0\
1_
0^
1a
0`
1b
#500000
1"
0!
1F
0C
#505000
1!
1C
0m
0n
0o
0p
1j
17
0=
0>
0?
0@
1J
0[
0]
0_
0a
0-
0.
0/
00
1*
0D
1Y
1\
1^
1`
1K
0\
0^
0`
0b
#510000
b11 $
b1 $
b0 $
0!
0E
0L
0R
0C
#515000
1!
1C
1i
0j
07
18
0J
1M
1)
0*
1D
0K
0M
1K
1N
0N
#520000
0!
0C
#525000
1!
1C
1j
17
1J
1*
0D
1M
0K
1N
#530000
0!
0C
#535000
1!
1C
1h
0i
0j
07
08
19
0J
0M
1P
1(
0)
0*
1D
1K
0N
0P
0K
1N
1Q
0Q
#540000
0!
0C
#545000
1!
1C
1j
17
1J
1*
0D
1K
#550000
b1 #
b11 #
0!
1H
1G
0C
0I
1P
1M
1d
1b
1`
1^
1\
1W
1T
1Q
0N
0K
1S
0Q
1N
1V
0T
0W
#555000
1!
1C
#560000
0!
0C
#565000
1!
1C
#570000
0!
0C
#575000
1!
1C
#580000
0!
0C
#585000
1!
1C
#590000
0!
0C
#595000
1!
1C
#600000
0"
0!
0F
0C
0Z
1I
#605000
1!
1C
0h
0j
07
09
0J
0(
0*
1D
0N
0M
1K
0P
1N
0S
1Q
0V
1T
1W
#610000
0!
0C
#615000
1!
1C
#620000
0!
0C
#625000
1!
1C
#630000
0!
0C
#635000
1!
1C
#640000
0!
0C
#645000
1!
1C
#650000
0!
0C
#655000
1!
1C
#660000
b1 #
0!
0G
0C
1Z
#665000
1!
1C
1k
1l
1m
1n
1o
1p
1=
1>
1?
1@
1A
1B
1[
1]
1_
1a
1c
1+
1,
1-
1.
1/
10
0Y
0\
0^
0`
0b
0d
1\
1^
1`
1b
1d
#670000
0!
0C
#675000
1!
1C
0p
0=
0[
00
1Y
0\
#680000
0!
0C
#685000
1!
1C
0o
1p
1=
0>
1[
0]
0/
10
0Y
1\
1]
0\
0^
1^
#690000
0!
0C
#695000
1!
1C
0p
0=
0[
00
1Y
0]
1\
0^
#700000
1"
0!
1F
0C
#705000
1!
1C
0k
0l
0m
0n
1e
1f
1g
1h
1i
1j
17
18
19
1:
1;
1<
0?
0@
0A
0B
1J
1M
1P
1S
1V
0_
0+
0,
0-
0.
1%
1&
1'
1(
1)
1*
0D
0K
0N
0Q
0T
0W
1^
0`
0b
0d
0a
1K
1N
1Q
1T
1W
1`
0c
1b
1d
#710000
0!
0C
#715000
1!
1C
0j
07
0J
0*
1D
0K
#720000
0!
0C
#725000
1!
1C
0i
1j
17
08
1J
0M
0)
1*
0D
1K
1M
0K
0N
1N
#730000
0!
0C
#735000
1!
1C
0j
07
0J
0*
1D
0M
1K
0N
#740000
0!
0C
#745000
1!
1C
0h
1i
1j
17
18
09
1J
1M
0P
0(
1)
1*
0D
0K
1N
1P
1K
0N
0Q
1Q
#750000
0!
0C
#755000
1!
1C
0j
07
0J
0*
1D
0K
#760000
0!
0C
#765000
1!
1C
0i
1j
17
08
1J
0M
0)
1*
0D
1K
1M
0P
0K
1N
1P
0N
0Q
1Q
#770000
0!
0C
#775000
1!
1C
0j
07
0J
0*
1D
0M
1K
0P
1N
0Q
#780000
0!
0C
#785000
1!
1C
0g
1h
1i
1j
17
18
19
0:
1J
1M
1P
0S
0'
1(
1)
1*
0D
0K
0N
1Q
1S
1K
1N
0Q
0T
1T
#790000
0!
0C
#795000
1!
1C
0j
07
0J
0*
1D
0K
#800000
0"
0!
0F
0C
#805000
1!
1C
1k
1l
1m
1n
1o
1p
0e
0f
0h
0i
08
09
0;
0<
1=
1>
1?
1@
1A
1B
0M
1[
1]
1_
1a
1c
1+
1,
1-
1.
1/
10
0%
0&
0(
0)
1K
0N
0T
0W
0Y
0\
0^
0`
0b
0d
0P
1N
1\
1^
1`
1b
1d
0S
1Q
0V
1T
1W
#810000
0!
0C
#815000
1!
1C
0p
0=
0[
00
1Y
0\
#820000
0!
0C
#825000
1!
1C
0o
1p
1=
0>
1[
0]
0/
10
0Y
1\
1]
0\
0^
1^
#830000
0!
0C
#835000
1!
1C
0p
0=
0[
00
1Y
0]
1\
0^
#840000
0!
0C
#845000
1!
1C
0n
1o
1p
1=
1>
0?
1[
1]
0_
0.
1/
10
0Y
0\
1^
1_
1\
0^
0`
1`
#850000
0!
0C
#855000
1!
1C
0p
0=
0[
00
1Y
0\
#860000
b0 #
0!
0H
0C
0_
0]
0d
0b
0`
1^
1\
0W
0T
0Q
0N
0K
0a
1`
0^
0c
1b
1d
#865000
1!
1C
1p
1=
1[
10
0Y
1]
0\
1^
#870000
0!
0C
#875000
1!
1C
1n
0o
0p
0=
0>
1?
0[
0]
1_
1.
0/
00
1Y
1\
0^
0_
1a
0\
1^
0`
0a
1c
1`
0b
0c
1b
0d
1d
#880000
0!
0C
#885000
1!
1C
1p
1=
1[
10
0Y
1\
#890000
0!
0C
#895000
1!
1C
1o
0p
0=
1>
0[
1]
1/
00
1Y
0\
0]
1_
1\
0^
0_
1a
1^
0`
0a
1c
1`
0b
0c
1b
0d
1d
#900000
1"
0!
1F
0C
#905000
1!
1C
0k
0l
0m
0n
0o
1j
17
0>
0?
0@
0A
0B
1J
0+
0,
0-
0.
0/
1*
0D
0\
0^
0`
0b
0d
1K
#910000
0!
0C
#915000
1!
1C
1i
0j
07
18
0J
1M
1)
0*
1D
0K
0M
1K
1N
0N
#920000
0!
0C
#925000
1!
1C
1j
17
1J
1*
0D
1M
0K
1N
#930000
0!
0C
#935000
1!
1C
1h
0i
0j
07
08
19
0J
0M
1P
1(
0)
0*
1D
1K
0N
0P
0K
1N
1Q
0Q
#940000
0!
0C
#945000
1!
1C
1j
17
1J
1*
0D
1K
#950000
0!
0C
#955000
1!
1C
1i
0j
07
18
0J
1M
1)
0*
1D
0K
0M
1P
1K
0N
0P
1N
1Q
0Q
#960000
0!
0C
#965000
1!
1C
1j
17
1J
1*
0D
1M
0K
1P
0N
1Q
#970000
0!
0C
#975000
1!
1C
1g
0h
0i
0j
07
08
09
1:
0J
0M
0P
1S
1'
0(
0)
0*
1D
1K
1N
0Q
0S
0K
0N
1Q
1T
0T
#980000
0!
0C
#985000
1!
1C
1j
17
1J
1*
0D
1K
#990000
0!
0C
#995000
1!
1C
1i
0j
07
18
0J
1M
1)
0*
1D
0K
0M
1K
1N
0N
